{
	"report": 11,
	"alarm": 22,
	"componentId": 42,
	"componentType": 44,
	"managedObjectId": "five",
	"managedObjectType": 66,
	"eventId": 77,
	"eventType": 88,
	"severity": 99,
	"eventDescription": "ten",
	"generationTime": "1970-01-01",
	"ip": 12,
	"acknowledgement": true
}